TextAnalysisR Vignette • TextAnalysisR
…
Launch and Browse the Shiny app

library(TextAnalysisR)

if (interactive()) {
  TextAnalysisR.app()
}

Unite Text Columns

df <- TextAnalysisR::SpecialEduTech
united_tbl <- TextAnalysisR::unite_text_cols(df, listed_vars = c("title", "keyword", "abstract"))
united_tbl

## # A tibble: 490 × 7
##    united_texts               reference_type author  year title keyword abstract
##    <chr>                      <chr>          <chr>  <dbl> <chr> <chr>   <chr>   
##  1 Dyscalculia and the minic… journal_artic… Block…  1980 Dysc… Arithm… Notes t…
##  2 The effects of computer-a… thesis         Bukat…  1981 The … locus … This st…
##  3 Computer Assisted Instruc… journal_artic… Watki…  1981 Comp… Comput… Results…
##  4 Arc-Ed Curriculum: Applic… journal_artic… Chaff…  1982 Arc-… Comput… The Arc…
##  5 ARC-ED curriculum: the ap… journal_artic… Chaff…  1982 ARC-… Electr… This ar…
##  6 The Effect of the Hand-he… thesis         Golde…  1982 The … NA      The pur…
##  7 A review of some traditio… journal_artic… Neal,…  1982 A re… tradit… Discuss…
##  8 A study of the effectiven… thesis         Engle…  1983 A st… microc… The pur…
##  9 The influence of computer… thesis         Foste…  1983 The … comput… The eff…
## 10 Using Computer Software t… journal_artic… Pomme…  1983 Usin… Comput… The art…
## # ℹ 480 more rows
…
